__/\\\\____________/\\\\______/\\\\\\\\\\\_______/\\\\\\\\\__________/\\\\\\\\\______/\\\\\\\\\\\_        
 _\/\\\\\\________/\\\\\\____/\\\/////////\\\___/\\\///////\\\______/\\\\\\\\\\\\\___\/////\\\///__       
  _\/\\\//\\\____/\\\//\\\___\//\\\______\///___\///______\//\\\____/\\\/////////\\\______\/\\\_____      
   _\/\\\\///\\\/\\\/_\/\\\____\////\\\____________________/\\\/____\/\\\_______\/\\\______\/\\\_____     
    _\/\\\__\///\\\/___\/\\\_______\////\\\______________/\\\//______\/\\\\\\\\\\\\\\\______\/\\\_____    
     _\/\\\____\///_____\/\\\__________\////\\\________/\\\//_________\/\\\/////////\\\______\/\\\_____   
      _\/\\\_____________\/\\\___/\\\______\//\\\_____/\\\/____________\/\\\_______\/\\\______\/\\\_____  
       _\/\\\_____________\/\\\__\///\\\\\\\\\\\/_____/\\\\\\\\\\\\\\\__\/\\\_______\/\\\___/\\\\\\\\\\\_ 
        _\///______________\///_____\///////////______\///////////////___\///________\///___\///////////__